{
  "count": 36,
  "next": "/api/starships?page=2",
  "previous": null,
  "results": [
    {
      "name": "CR90 corvette",
      "url": "/api/starships/2"
    },
    {
      "name": "Star Destroyer",
      "url": "/api/starships/3"
    },
    {
      "name": "Sentinel-class landing craft",
      "url": "/api/starships/5"
    },
    {
      "name": "Death Star",
      "url": "/api/starships/9"
    },
    {
      "name": "Millennium Falcon",
      "url": "/api/starships/10"
    },
    {
      "name": "Y-wing",
      "url": "/api/starships/11"
    },
    {
      "name": "X-wing",
      "url": "/api/starships/12"
    },
    {
      "name": "TIE Advanced x1",
      "url": "/api/starships/13"
    },
    {
      "name": "Executor",
      "url": "/api/starships/15"
    },
    {
      "name": "Rebel transport",
      "url": "/api/starships/17"
    },
    {
      "name": "Slave 1",
      "url": "/api/starships/21"
    },
    {
      "name": "Imperial shuttle",
      "url": "/api/starships/22"
    },
    {
      "name": "EF76 Nebulon-B escort frigate",
      "url": "/api/starships/23"
    },
    {
      "name": "Calamari Cruiser",
      "url": "/api/starships/27"
    },
    {
      "name": "A-wing",
      "url": "/api/starships/28"
    },
    {
      "name": "B-wing",
      "url": "/api/starships/29"
    },
    {
      "name": "Republic Cruiser",
      "url": "/api/starships/31"
    },
    {
      "name": "Droid control ship",
      "url": "/api/starships/32"
    },
    {
      "name": "Naboo fighter",
      "url": "/api/starships/39"
    },
    {
      "name": "Naboo Royal Starship",
      "url": "/api/starships/40"
    },
    {
      "name": "Scimitar",
      "url": "/api/starships/41"
    },
    {
      "name": "J-type diplomatic barge",
      "url": "/api/starships/43"
    },
    {
      "name": "AA-9 Coruscant freighter",
      "url": "/api/starships/47"
    },
    {
      "name": "Jedi starfighter",
      "url": "/api/starships/48"
    },
    {
      "name": "H-type Nubian yacht",
      "url": "/api/starships/49"
    },
    {
      "name": "Republic Assault ship",
      "url": "/api/starships/52"
    },
    {
      "name": "Solar Sailer",
      "url": "/api/starships/58"
    },
    {
      "name": "Trade Federation cruiser",
      "url": "/api/starships/59"
    },
    {
      "name": "Theta-class T-2c shuttle",
      "url": "/api/starships/61"
    },
    {
      "name": "Republic attack cruiser",
      "url": "/api/starships/63"
    }
  ]
}